<?xml version="1.0" encoding="UTF-8"?>
<svg width="99px" height="109px" viewBox="0 0 99 109" version="1.1" xmlns="http://www.w3.org/2000/svg" xmlns:xlink="http://www.w3.org/1999/xlink">
    <!-- Generator: Sketch 53.2 (72643) - https://sketchapp.com -->
    <title>Path</title>
    <desc>Created with Sketch.</desc>
    <g id="Page-1" stroke="none" stroke-width="1" fill="none" fill-rule="evenodd">
        <g id="Home" transform="translate(-144.000000, -1914.000000)" stroke="#FFE19B" stroke-width="3">
            <g id="main" transform="translate(-299.000000, 188.000000)">
                <g id="for-clients" transform="translate(376.315409, 1621.000000)">
                    <g id="left">
                        <g id="serv-panel" transform="translate(47.684591, 82.838518)">
                            <g id="icon" transform="translate(21.000000, 24.000000)">
                                <g id="Path-3" transform="translate(0.000000, 0.000000)">
                                    <path d="M55.477931,2.14258178 L87.022069,20.3963577 C91.9588299,23.2531334 95,28.5326726 95,34.246224 L95,70.753776 C95,76.4673274 91.9588299,81.7468666 87.022069,84.6036423 L55.477931,102.857418 C50.5411701,105.714194 44.4588299,105.714194 39.522069,102.857418 L7.97793099,84.6036423 C3.04117011,81.7468666 2.39146632e-14,76.4673274 1.77145654e-14,70.753776 L0,34.246224 C-3.54291307e-15,28.5326726 3.04117011,23.2531334 7.97793099,20.3963577 L39.522069,2.14258178 C44.4588299,-0.714193925 50.5411701,-0.714193925 55.477931,2.14258178 L55.477931,2.14258178 Z" id="Path"></path>
                                </g>
                            </g>
                        </g>
                    </g>
                </g>
            </g>
        </g>
    </g>
</svg>