<?xml version="1.0" encoding="UTF-8"?>
<svg width="63px" height="726px" viewBox="0 0 63 726" version="1.1" xmlns="http://www.w3.org/2000/svg" xmlns:xlink="http://www.w3.org/1999/xlink">
    <!-- Generator: Sketch 53.2 (72643) - https://sketchapp.com -->
    <title>Oval</title>
    <desc>Created with Sketch.</desc>
    <defs>
        <linearGradient x1="57.0841437%" y1="86.817169%" x2="67.6782382%" y2="35.0984796%" id="linearGradient-1">
            <stop stop-color="#558F71" offset="0%"></stop>
            <stop stop-color="#94C3AB" offset="100%"></stop>
        </linearGradient>
    </defs>
    <g id="Page-1" stroke="none" stroke-width="1" fill="none" fill-rule="evenodd">
        <g id="Home" transform="translate(0.000000, -2905.000000)" fill="url(#linearGradient-1)">
            <g id="main" transform="translate(-299.000000, 188.000000)">
                <g id="services-for-clients" transform="translate(0.000000, 2635.000000)">
                    <path d="M349,380 C308.340865,281.657223 363.343726,190.734364 349,142.342777 C324,58 114.811314,-6.07739789 39,25 C-50.9896246,61.8895249 50.2024661,237.197786 25.3426402,297.712206 C-20.4602231,409.2067 24.5057871,555.914207 62.9244768,634.54294 C89.3492057,688.624507 194.94684,818.243247 266,827 C306.829256,832.03189 355.713349,717.142381 325,603 C313.325549,559.61334 389.659135,478.342777 349,380 Z" id="Oval"></path>
                </g>
            </g>
        </g>
    </g>
</svg>