<?xml version="1.0" encoding="UTF-8"?>
<svg width="107px" height="106px" viewBox="0 0 107 106" version="1.1" xmlns="http://www.w3.org/2000/svg" xmlns:xlink="http://www.w3.org/1999/xlink">
    <!-- Generator: Sketch 53.2 (72643) - https://sketchapp.com -->
    <title>ico</title>
    <desc>Created with Sketch.</desc>
    <defs>
        <linearGradient x1="85.8568116%" y1="86.817169%" x2="47.7056447%" y2="-5.29177792%" id="linearGradient-1">
            <stop stop-color="#558F71" offset="0%"></stop>
            <stop stop-color="#94C3AB" offset="100%"></stop>
        </linearGradient>
        <path d="M56,4.33012702 L76.0740289,15.919873 C80.715045,18.5993649 83.5740289,23.5512702 83.5740289,28.910254 L83.5740289,52.089746 C83.5740289,57.4487298 80.715045,62.4006351 76.0740289,65.080127 L56,76.669873 C51.3589838,79.3493649 45.6410162,79.3493649 41,76.669873 L20.9259711,65.080127 C16.284955,62.4006351 13.4259711,57.4487298 13.4259711,52.089746 L13.4259711,28.910254 C13.4259711,23.5512702 16.284955,18.5993649 20.9259711,15.919873 L41,4.33012702 C45.6410162,1.65063509 51.3589838,1.65063509 56,4.33012702 Z" id="path-2"></path>
        <filter x="-27.3%" y="-18.7%" width="154.5%" height="162.2%" filterUnits="objectBoundingBox" id="filter-3">
            <feOffset dx="0" dy="10" in="SourceAlpha" result="shadowOffsetOuter1"></feOffset>
            <feGaussianBlur stdDeviation="7.5" in="shadowOffsetOuter1" result="shadowBlurOuter1"></feGaussianBlur>
            <feColorMatrix values="0 0 0 0 0   0 0 0 0 0   0 0 0 0 0  0 0 0 0.0981479458 0" type="matrix" in="shadowBlurOuter1"></feColorMatrix>
        </filter>
    </defs>
    <g id="Page-1" stroke="none" stroke-width="1" fill="none" fill-rule="evenodd">
        <g id="Home" transform="translate(-923.000000, -3454.000000)">
            <g id="main" transform="translate(-299.000000, 188.000000)">
                <g id="services-for-clients" transform="translate(0.000000, 2635.000000)">
                    <g id="serv-row" transform="translate(424.000000, 633.342777)">
                        <g id="serv-item" transform="translate(690.000000, 0.000000)">
                            <g id="ico" transform="translate(110.000000, 0.000000)">
                                <g id="Polygon">
                                    <use fill="black" fill-opacity="1" filter="url(#filter-3)" xlink:href="#path-2"></use>
                                    <use fill="url(#linearGradient-1)" fill-rule="evenodd" xlink:href="#path-2"></use>
                                </g>
                                <rect id="Rectangle" fill="#A3D4BB" x="70" y="40" width="27" height="3" rx="1.5"></rect>
                                <rect id="Rectangle" fill="#A3D4BB" x="5" y="34" width="17" height="3" rx="1.5"></rect>
                                <rect id="Rectangle" fill="#A3D4BB" x="10" y="50" width="10" height="3" rx="1.5"></rect>
                                <rect id="Rectangle" fill="#A3D4BB" x="0" y="42" width="24" height="3" rx="1.5"></rect>
                                <rect id="Rectangle" fill="#A3D4BB" x="73" y="29" width="32" height="3" rx="1.5"></rect>
                                <rect id="Rectangle" fill="#A3D4BB" x="75" y="51" width="16" height="3" rx="1.5"></rect>
                            </g>
                        </g>
                    </g>
                </g>
            </g>
        </g>
    </g>
</svg>