<?xml version="1.0" encoding="UTF-8"?>
<svg width="1600px" height="47px" viewBox="0 0 1600 47" preserveAspectRatio="none" version="1.1" xmlns="http://www.w3.org/2000/svg" xmlns:xlink="http://www.w3.org/1999/xlink">
    <!-- Generator: Sketch 53.2 (72643) - https://sketchapp.com -->
    <title>Group 6</title>
    <desc>Created with Sketch.</desc>
    <defs>
        <linearGradient x1="55.7065053%" y1="121.195377%" x2="55.7065053%" y2="-45.1662299%" id="linearGradient-1">
            <stop stop-color="#558F71" offset="0%"></stop>
            <stop stop-color="#94C3AB" offset="100%"></stop>
            <stop stop-color="#94C3AB" offset="100%"></stop>
        </linearGradient>
        <linearGradient x1="50%" y1="0%" x2="50%" y2="50%" id="linearGradient-2">
            <stop stop-color="#FFE19B" offset="0%"></stop>
            <stop stop-color="#FBD271" offset="100%"></stop>
        </linearGradient>
    </defs>
    <g id="Page-1" stroke="none" stroke-width="1" fill="none" fill-rule="evenodd">
        <g id="Home" transform="translate(0.000000, -7946.000000)">
            <g id="footer" transform="translate(-22.000000, 7813.000000)">
                <g id="Group-6" transform="translate(0.000000, 133.868644)">
                    <path d="M0,33.5578536 C160,7.27352191 295,-0.535310597 405,10.1313561 C570,26.1313561 877.5,0.13135607 1012.5,10.1313561 C1088.69803,15.7756545 1362.01242,38.297991 1486.00621,19.2146736 C1568.66874,6.4924619 1635.33333,7.79802274 1686,23.1313561 L1644,69.1310114 C1633.43248,67.8132545 1511.93248,67.4815058 1279.5,68.1357653 C981.697262,68.9740314 876,63.9776663 517,66.5556877 C277.666667,68.2743686 105.333333,69.133013 0,69.131621 L0,33.5578536 Z" id="Rectangle" fill="url(#linearGradient-1)"></path>
                    <path d="M357.5,171.131356 C418.790461,171.131356 636.886827,164.479052 867.659051,153.338192 C1180.66954,138.227163 1517,114.858469 1517,88.6313561 C1517,78.7540237 1506.0732,117.503821 1369,98.1313561 C1267.2923,83.7570736 1084,18.1313561 983,24.1313561 C854.849303,31.7442687 910,36.1313561 791,36.1313561 C603.066892,36.1313561 549,-16.8686439 389,5.51262656 C229,27.893897 112,52.5678642 112,98.1313561 C112,143.694848 213.077538,171.131356 357.5,171.131356 Z" id="Oval" fill="url(#linearGradient-2)"></path>
                </g>
            </g>
        </g>
    </g>
</svg>