<?xml version="1.0" encoding="UTF-8"?>
<svg width="18px" height="18px" viewBox="0 0 18 18" version="1.1" xmlns="http://www.w3.org/2000/svg" xmlns:xlink="http://www.w3.org/1999/xlink">
    <!-- Generator: Sketch 53.2 (72643) - https://sketchapp.com -->
    <title>Fill 6</title>
    <desc>Created with Sketch.</desc>
    <g id="Page-1" stroke="none" stroke-width="1" fill="none" fill-rule="evenodd">
        <g id="Home" transform="translate(-1208.000000, -548.000000)" fill="#747474">
            <g id="main" transform="translate(-299.000000, 188.000000)">
                <g id="header-section" transform="translate(424.000000, 0.000000)">
                    <g id="insta-posts">
                        <g id="insta-post" transform="translate(1034.000000, 87.000000)">
                            <g id="buttons" transform="translate(16.000000, 272.000000)">
                                <path d="M48.8582,13.303 L48.8582,13.303 C48.6392,13.735 48.5672,14.196 48.6502,14.636 L49.1392,17.233 C49.1642,17.369 49.0872,17.455 49.0532,17.485 C49.0202,17.516 48.9282,17.585 48.7922,17.543 L46.3972,16.809 C46.2102,16.751 46.0152,16.722 45.8172,16.722 C45.5392,16.722 45.2542,16.78 44.9762,16.895 C43.5772,17.472 42.0442,17.613 40.5372,17.302 C37.5622,16.687 35.2072,14.277 34.6752,11.305 C34.2232,8.782 34.9922,6.314 36.7842,4.536 C38.5772,2.757 41.0522,2.007 43.5742,2.478 C46.4362,3.012 48.8032,5.277 49.4642,8.113 C49.8812,9.904 49.6722,11.699 48.8582,13.303 M50.4382,7.886 C49.6882,4.669 47.0032,2.101 43.7572,1.495 C40.9072,0.961 38.1082,1.812 36.0802,3.826 C34.0512,5.84 33.1802,8.63 33.6902,11.481 C34.2942,14.851 36.9632,17.584 40.3352,18.282 C42.0362,18.633 43.7722,18.473 45.3582,17.819 C45.5382,17.745 45.8122,17.675 46.1042,17.765 L48.5002,18.499 C48.6242,18.537 48.7512,18.556 48.8762,18.556 C49.1832,18.556 49.4822,18.443 49.7202,18.231 C50.0542,17.931 50.2052,17.49 50.1212,17.049 L49.6332,14.451 C49.5802,14.171 49.6672,13.918 49.7502,13.755 L49.7502,13.756 C50.6712,11.939 50.9102,9.909 50.4382,7.886" id="Fill-6"></path>
                            </g>
                        </g>
                    </g>
                </g>
            </g>
        </g>
    </g>
</svg>